{
    "id": "org.kde.kontact",
    "branch": "master",
    "rename-icon": "kontact",
    "runtime": "org.kde.Platform",
    "runtime-version": "5.12",
    "sdk": "org.kde.Sdk",
    "tags": [ "nightly" ],
    "desktop-file-name-suffix": " (Nightly)",
    "command": "run_kontact.sh",
    "finish-args": [
        "--share=network",
        "--share=ipc",
        "--socket=x11",
        "--socket=wayland",
        "--device=dri",
        "--own-name=org.freedesktop.Akonadi",
        "--own-name=org.freedesktop.Akonadi.*",
        "--own-name=org.freedesktop.Akonadi.Control.*",
        "--own-name=org.freedesktop.Akonadi.Agent.*",
        "--own-name=org.freedesktop.Akonadi.Resource.*",
        "--own-name=org.kde.akregator",
        "--own-name=org.kde.kaddressbook",
        "--own-name=org.kde.kmail",
        "--own-name=org.kde.kmail2",
        "--own-name=org.kde.knotes",
        "--own-name=org.kde.kontact",
        "--own-name=org.kde.korgac",
        "--own-name=org.kde.korganizer",
        "--own-name=org.kde.kalarm",
        "--own-name=org.kde.accountwizard",
        "--own-name=org.kde.pimsettingsexporter",
        "--own-name=org.kde.sieveeditor",
        "--own-name=org.kde.pim.*",
        "--talk-name=org.kde.Solid.PowerManagement",
        "--talk-name=org.kde.kded5",
        "--talk-name=org.kde.kglobalaccel",
        "--talk-name=org.kde.JobViewServer",
        "--talk-name=org.kde.klauncher5",
        "--talk-name=org.kde.knotify",
        "--talk-name=org.kde.kwalletd5",
        "--talk-name=org.kde.kcookiejar5",
        "--system-talk-name=org.freedesktop.NetworkManager"
    ],
    "cleanup": [
        "/lib/cmake",
        "/lib/pkgconfig",
        "/lib/plugins/designer",
        "/include",
        "/docs",
        "/mkspecs",
        "/share/man",
        "/bin/afmtodit",
        "/usr/bin/xsd",
        "/lib/libKF5*.so",
        "/lib/libboost_*.so",
        "*.a",
        "*.la"
    ],
    "rename-icon": "kontact",
    "copy-icon": true,
    "modules": [
        "boost.json",
        "gpgme.json",
        {
            "name": "kdiagram",
            "config-opts": [
                "-DBUILD_TESTING=OFF",
                "-DCMAKE_BUILD_TYPE=RelWithDebInfo"
            ],
            "buildsystem": "cmake-ninja",
            "sources": [
                {
                    "type": "git",
                    "url": "https://anongit.kde.org/kdiagram.git",
                    "branch": "master"
                }
            ]
        },
        {
            "name": "kcalendarcore",
            "config-opts": [
                "-DBUILD_TESTING=OFF",
                "-DCMAKE_BUILD_TYPE=RelWithDebInfo"
            ],
            "buildsystem": "cmake-ninja",
            "sources": [
                {
                    "type": "git",
                    "url": "https://anongit.kde.org/kcalendarcore.git",
                    "branch": "master"
                }
            ],
            "modules": [
                {
                    "name": "libical",
                    "buildsystem": "cmake-ninja",
                    "config-opts": [
                        "-DCMAKE_BUILD_TYPE=RelWithDebInfo"
                    ],
                    "sources": [
                        {
                            "type": "archive",
                            "url": "https://github.com/libical/libical/releases/download/v3.0.4/libical-3.0.4.tar.gz",
                            "sha256": "72b216e10233c3f60cb06062facf41f3b0f70615e5a60b47f9853341a0d5d145"
                        }
                    ],
                    "cleanup": [
                        "/share/gtk-doc"
                    ]
                }
            ]
        },
        {
            "name": "akonadi",
            "config-opts": [
                "-DBUILD_TESTING=OFF",
                "-DBUILD_TOOLS=OFF",
                "-DCMAKE_BUILD_TYPE=RelWithDebInfo",
                "-DDATABASE_BACKEND=SQLITE"
            ],
            "buildsystem": "cmake-ninja",
            "sources": [
                {
                    "type": "git",
                    "url": "https://anongit.kde.org/akonadi.git",
                    "branch": "master"
                }
            ],
            "modules": [
                {
                    "name": "sqlite3",
                    "config-opts": [
                        "--enable-threadsafe",
                        "--enable-threads-override-locks"
                    ],
                    "build-options": {
                        "cflags": "-DSQLITE_ENABLE_UNLOCK_NOTIFY=1"
                    },
                    "sources": [
                        {
                            "type": "archive",
                            "url": "http://sqlite.org/2016/sqlite-autoconf-3150200.tar.gz",
                            "sha256": "07b35063b9386865b78226cdaca9a299d938a87aaa8fdc4d73edb0cef30f3149"
                        }
                    ],
                    "cleanup": [
                        "/bin/sqlite3"
                    ]
                }
            ]
        },
        {
            "name": "kmime",
            "config-opts": [
                "-DBUILD_TESTING=OFF",
                "-DCMAKE_BUILD_TYPE=RelWithDebInfo"
            ],
            "buildsystem": "cmake-ninja",
            "sources": [
                {
                    "type": "git",
                    "url": "https://anongit.kde.org/kmime.git",
                    "branch": "master"
                }
            ]
        },
        {
            "name": "akonadi-mime",
            "config-opts": [
                "-DBUILD_TESTING=OFF",
                "-DCMAKE_BUILD_TYPE=RelWithDebInfo"
            ],
            "buildsystem": "cmake-ninja",
            "sources": [
                {
                    "type": "git",
                    "url": "https://anongit.kde.org/akonadi-mime.git",
                    "branch": "master"
                }
            ]
        },
        {
            "name": "kcontacts",
            "config-opts": [
                "-DBUILD_TESTING=OFF",
                "-DCMAKE_BUILD_TYPE=RelWithDebInfo"
            ],
            "buildsystem": "cmake-ninja",
            "sources": [
                {
                    "type": "git",
                    "url": "https://anongit.kde.org/kcontacts.git",
                    "branch": "master"
                }
            ]
        },
        {
            "name": "grantlee",
            "config-opts": [
                "-DBUILD_TESTING=OFF",
                "-DCMAKE_BUILD_TYPE=RelWithDebInfo"
            ],
            "buildsystem": "cmake-ninja",
            "sources": [
                {
                    "type": "archive",
                    "url": "https://github.com/steveire/grantlee/archive/v5.1.0.tar.gz",
                    "sha256": "3836572fe5e49d28a1d99186c6d96f88ff839644b4bc77b73b6d8208f6ccc9d1"
                }
            ]
        },
        {
            "name": "prison",
            "config-opts": [
                "-DBUILD_TESTING=OFF",
                "-DCMAKE_BUILD_TYPE=RelWithDebInfo"
            ],
            "buildsystem": "cmake-ninja",
            "sources": [
                {
                    "type": "git",
                    "url": "https://anongit.kde.org/prison.git",
                    "branch": "v5.60.0"
                }
            ],
            "modules": [
                {
                    "name": "qrencode",
                    "rm-configure": true,
                    "sources": [
                        {
                            "type": "archive",
                            "url": "https://fukuchi.org/works/qrencode/qrencode-4.0.2.tar.gz",
                            "sha256": "dbabe79c07614625d1f74d8c0ae2ee5358c4e27eab8fd8fe31f9365f821a3b1d"
                        },
                        {
                            "type": "script",
                            "dest-filename": "autogen.sh",
                            "commands": [
                                "cp -p /usr/share/automake-*/config.{sub,guess} .",
                                "autoconf -f -B build/autoconf_prepend-include"
                            ]
                        }
                    ]
                },
                {
                    "name": "libdmtx",
                    "sources": [
                        {
                            "type": "archive",
                            "url": "https://github.com/dmtx/libdmtx/archive/v0.7.5.tar.gz",
                            "sha256": "be0c5275695a732a5f434ded1fcc232aa63b1a6015c00044fe87f3a689b75f2e"
                        }
                    ]
                }
            ]
        },
        {
            "name": "purpose",
            "config-opts": [ "-DBUILD_TESTING=OFF", "-DCMAKE_BUILD_TYPE=RelWithDebInfo" ],
            "buildsystem": "cmake-ninja",
            "sources": [ { "type": "git", "url": "https://anongit.kde.org/purpose.git", "branch": "v5.60.0" } ]
        },
        {
            "name": "akonadi-contacts",
            "config-opts": [
                "-DBUILD_TESTING=OFF",
                "-DCMAKE_BUILD_TYPE=RelWithDebInfo"
            ],
            "buildsystem": "cmake-ninja",
            "sources": [
                {
                    "type": "git",
                    "url": "https://anongit.kde.org/akonadi-contacts.git",
                    "branch": "master"
                }
            ]
        },
        {
            "name": "libkgapi",
            "config-opts": [
                "-DBUILD_TESTING=OFF",
                "-DCMAKE_BUILD_TYPE=RelWithDebInfo"
            ],
            "buildsystem": "cmake-ninja",
            "sources": [
                {
                    "type": "git",
                    "url": "https://anongit.kde.org/libkgapi.git",
                    "branch": "master"
                }
            ]
        },
        {
            "name": "ksmtp",
            "config-opts": [
                "-DBUILD_TESTING=OFF",
                "-DCMAKE_BUILD_TYPE=RelWithDebInfo"
            ],
            "buildsystem": "cmake-ninja",
            "sources": [
                {
                    "type": "git",
                    "url": "https://anongit.kde.org/ksmtp.git",
                    "branch": "master"
                }
            ]
        },
        {
            "name": "kmailtransport",
            "config-opts": [
                "-DBUILD_TESTING=OFF",
                "-DCMAKE_BUILD_TYPE=RelWithDebInfo"
            ],
            "buildsystem": "cmake-ninja",
            "sources": [
                {
                    "type": "git",
                    "url": "https://anongit.kde.org/kmailtransport.git",
                    "branch": "master"
                }
            ]
        },
        {
            "name": "kpimtextedit",
            "config-opts": [
                "-DBUILD_TESTING=OFF",
                "-DCMAKE_BUILD_TYPE=RelWithDebInfo"
            ],
            "buildsystem": "cmake-ninja",
            "sources": [
                {
                    "type": "git",
                    "url": "https://anongit.kde.org/kpimtextedit.git",
                    "branch": "master"
                }
            ]
        },
        {
            "name": "kidentitymanagement",
            "config-opts": [
                "-DBUILD_TESTING=OFF",
                "-DCMAKE_BUILD_TYPE=RelWithDebInfo"
            ],
            "buildsystem": "cmake-ninja",
            "sources": [
                {
                    "type": "git",
                    "url": "https://anongit.kde.org/kidentitymanagement.git",
                    "branch": "master"
                }
            ]
        },
        {
            "name": "kcalutils",
            "config-opts": [
                "-DBUILD_TESTING=OFF",
                "-DCMAKE_BUILD_TYPE=RelWithDebInfo"
            ],
            "buildsystem": "cmake-ninja",
            "sources": [
                {
                    "type": "git",
                    "url": "https://anongit.kde.org/kcalutils.git",
                    "branch": "master"
                }
            ]
        },
        {
            "name": "xapian",
            "sources": [
                {
                    "type": "archive",
                    "url": "https://oligarchy.co.uk/xapian/1.4.7/xapian-core-1.4.7.tar.xz",
                    "sha256": "13f08a0b649c7afa804fa0e85678d693fd6069dd394c9b9e7d41973d74a3b5d3"
                }
            ],
            "cleanup": [
                "/share/doc/xapian-core",
                "/bin/xapian-*",
                "/bin/copydatabase",
                "/bin/quest",
                "/bin/simpleexpand",
                "/bin/simpleindex",
                "/bin/simplesearch"
            ]
        },
        {
            "name": "kldap",
            "config-opts": [
                "-DBUILD_TESTING=OFF",
                "-DCMAKE_BUILD_TYPE=RelWithDebInfo"
            ],
            "buildsystem": "cmake-ninja",
            "sources": [
                {
                    "type": "git",
                    "url": "https://anongit.kde.org/kldap.git",
                    "branch": "master"
                }
            ],
            "modules": [
                {
                    "name": "openldap",
                    "config-opts": [
                        "--disable-static",
                        "--disable-slapd"
                    ],
                    "sources": [
                        {
                            "type": "archive",
                            "url": "http://mirror.eu.oneandone.net/software/openldap/openldap-release/openldap-2.4.44.tgz",
                            "sha256": "d7de6bf3c67009c95525dde3a0212cc110d0a70b92af2af8e3ee800e81b88400"
                        }
                    ],
                    "cleanup": [
                        "/bin/ldap*",
                        "/sbin"
                    ]
                }
            ]
        },
        {
            "name": "akonadi-search",
            "config-opts": [
                "-DBUILD_TESTING=OFF",
                "-DCMAKE_BUILD_TYPE=RelWithDebInfo",
                "-DAKONADISEARCH_ENABLE_KRUNNER_RUNNER=OFF"
            ],
            "buildsystem": "cmake-ninja",
            "sources": [
                {
                    "type": "git",
                    "url": "https://anongit.kde.org/akonadi-search.git",
                    "branch": "master"
                }
            ]
        },
        {
            "name": "kmbox",
            "config-opts": [
                "-DBUILD_TESTING=OFF",
                "-DCMAKE_BUILD_TYPE=RelWithDebInfo"
            ],
            "buildsystem": "cmake-ninja",
            "sources": [
                {
                    "type": "git",
                    "url": "https://anongit.kde.org/kmbox.git",
                    "branch": "master"
                }
            ]
        },
        {
            "name": "libkdepim",
            "config-opts": [
                "-DBUILD_TESTING=OFF",
                "-DCMAKE_BUILD_TYPE=RelWithDebInfo"
            ],
            "buildsystem": "cmake-ninja",
            "sources": [
                {
                    "type": "git",
                    "url": "https://anongit.kde.org/libkdepim.git",
                    "branch": "master"
                }
            ]
        },
        {
            "name": "kimap",
            "config-opts": [
                "-DBUILD_TESTING=OFF",
                "-DCMAKE_BUILD_TYPE=RelWithDebInfo"
            ],
            "buildsystem": "cmake-ninja",
            "sources": [
                {
                    "type": "git",
                    "url": "https://anongit.kde.org/kimap.git",
                    "branch": "master"
                }
            ]
        },
        {
            "name": "pimcommon",
            "config-opts": [
                "-DBUILD_TESTING=OFF",
                "-DCMAKE_BUILD_TYPE=RelWithDebInfo"
            ],
            "buildsystem": "cmake-ninja",
            "sources": [
                {
                    "type": "git",
                    "url": "https://anongit.kde.org/pimcommon.git",
                    "branch": "master"
                }
            ]
        },
        {
            "name": "kholidays",
            "config-opts": [
                "-DBUILD_TESTING=OFF",
                "-DCMAKE_BUILD_TYPE=RelWithDebInfo"
            ],
            "buildsystem": "cmake-ninja",
            "sources": [
                {
                    "type": "git",
                    "url": "https://anongit.kde.org/kholidays.git",
                    "branch": "v5.60.0"
                }
            ]
        },
        {
            "name": "akonadi-calendar",
            "config-opts": [
                "-DBUILD_TESTING=OFF",
                "-DCMAKE_BUILD_TYPE=RelWithDebInfo"
            ],
            "buildsystem": "cmake-ninja",
            "sources": [
                {
                    "type": "git",
                    "url": "https://anongit.kde.org/akonadi-calendar.git",
                    "branch": "master"
                }
            ]
        },
        {
            "name": "akonadi-notes",
            "config-opts": [
                "-DBUILD_TESTING=OFF",
                "-DCMAKE_BUILD_TYPE=RelWithDebInfo"
            ],
            "buildsystem": "cmake-ninja",
            "sources": [
                {
                    "type": "git",
                    "url": "https://anongit.kde.org/akonadi-notes.git",
                    "branch": "master"
                }
            ]
        },
        {
            "name": "syndication",
            "config-opts": [
                "-DBUILD_TESTING=OFF",
                "-DCMAKE_BUILD_TYPE=RelWithDebInfo"
            ],
            "buildsystem": "cmake-ninja",
            "sources": [
                {
                    "type": "git",
                    "url": "https://anongit.kde.org/syndication.git",
                    "branch": "v5.60.0"
                }
            ]
        },
        {
            "name": "kdav",
            "config-opts": [
                "-DBUILD_TESTING=OFF",
                "-DCMAKE_BUILD_TYPE=RelWithDebInfo"
            ],
            "buildsystem": "cmake-ninja",
            "sources": [
                {
                    "type": "git",
                    "url": "https://anongit.kde.org/kdav.git",
                    "branch": "master"
                }
            ]
        },
        {
            "name": "libkleo",
            "config-opts": [
                "-DBUILD_TESTING=OFF",
                "-DCMAKE_BUILD_TYPE=RelWithDebInfo"
            ],
            "buildsystem": "cmake-ninja",
            "sources": [
                {
                    "type": "git",
                    "url": "https://anongit.kde.org/libkleo.git",
                    "branch": "master"
                }
            ]
        },
        {
            "name": "grantleetheme",
            "config-opts": [
                "-DBUILD_TESTING=OFF",
                "-DCMAKE_BUILD_TYPE=RelWithDebInfo"
            ],
            "buildsystem": "cmake-ninja",
            "sources": [
                {
                    "type": "git",
                    "url": "https://anongit.kde.org/grantleetheme.git",
                    "branch": "master"
                }
            ]
        },
        {
            "name": "kdepim-apps-libs",
            "config-opts": [
                "-DBUILD_TESTING=OFF",
                "-DCMAKE_BUILD_TYPE=RelWithDebInfo"
            ],
            "buildsystem": "cmake-ninja",
            "sources": [
                {
                    "type": "git",
                    "url": "https://anongit.kde.org/kdepim-apps-libs.git",
                    "branch": "master"
                }
            ]
        },
        {
            "name": "libgravatar",
            "config-opts": [
                "-DBUILD_TESTING=OFF",
                "-DCMAKE_BUILD_TYPE=RelWithDebInfo"
            ],
            "buildsystem": "cmake-ninja",
            "sources": [
                {
                    "type": "git",
                    "url": "https://anongit.kde.org/libgravatar.git",
                    "branch": "master"
                }
            ]
        },
        {
            "name": "calendarsupport",
            "config-opts": [
                "-DBUILD_TESTING=OFF",
                "-DCMAKE_BUILD_TYPE=RelWithDebInfo"
            ],
            "buildsystem": "cmake-ninja",
            "sources": [
                {
                    "type": "git",
                    "url": "https://anongit.kde.org/calendarsupport.git",
                    "branch": "master"
                }
            ]
        },
        {
            "name": "eventviews",
            "config-opts": [
                "-DBUILD_TESTING=OFF",
                "-DCMAKE_BUILD_TYPE=RelWithDebInfo"
            ],
            "buildsystem": "cmake-ninja",
            "sources": [
                {
                    "type": "git",
                    "url": "https://anongit.kde.org/eventviews.git",
                    "branch": "master"
                }
            ]
        },
        {
            "name": "incidenceeditor",
            "config-opts": [
                "-DBUILD_TESTING=OFF",
                "-DCMAKE_BUILD_TYPE=RelWithDebInfo"
            ],
            "buildsystem": "cmake-ninja",
            "sources": [
                {
                    "type": "git",
                    "url": "https://anongit.kde.org/incidenceeditor.git",
                    "branch": "master"
                }
            ]
        },
        {
            "name": "messagelib",
            "config-opts": [
                "-DBUILD_TESTING=OFF",
                "-DCMAKE_BUILD_TYPE=RelWithDebInfo"
            ],
            "buildsystem": "cmake-ninja",
            "sources": [
                {
                    "type": "git",
                    "url": "https://anongit.kde.org/messagelib.git",
                    "branch": "master"
                }
            ]
        },
        {
            "name": "mailimporter",
            "config-opts": [
                "-DBUILD_TESTING=OFF",
                "-DCMAKE_BUILD_TYPE=RelWithDebInfo"
            ],
            "buildsystem": "cmake-ninja",
            "sources": [
                {
                    "type": "git",
                    "url": "https://anongit.kde.org/mailimporter.git",
                    "branch": "master"
                }
            ]
        },
        {
            "name": "mailcommon",
            "config-opts": [
                "-DBUILD_TESTING=OFF",
                "-DCMAKE_BUILD_TYPE=RelWithDebInfo"
            ],
            "buildsystem": "cmake-ninja",
            "sources": [
                {
                    "type": "git",
                    "url": "https://anongit.kde.org/mailcommon.git",
                    "branch": "master"
                }
            ]
        },
        {
            "name": "kontactinterface",
            "config-opts": [
                "-DBUILD_TESTING=OFF",
                "-DCMAKE_BUILD_TYPE=RelWithDebInfo"
            ],
            "buildsystem": "cmake-ninja",
            "sources": [
                {
                    "type": "git",
                    "url": "https://anongit.kde.org/kontactinterface.git",
                    "branch": "master"
                }
            ]
        },
        {
            "name": "libksieve",
            "config-opts": [
                "-DBUILD_TESTING=OFF",
                "-DCMAKE_BUILD_TYPE=RelWithDebInfo"
            ],
            "buildsystem": "cmake-ninja",
            "sources": [
                {
                    "type": "git",
                    "url": "https://anongit.kde.org/libksieve.git",
                    "branch": "master"
                }
            ]
        },
        {
            "name": "kdepim-runtime",
            "config-opts": [
                "-DBUILD_TESTING=OFF",
                "-DCMAKE_BUILD_TYPE=RelWithDebInfo"
            ],
            "buildsystem": "cmake-ninja",
            "sources": [
                {
                    "type": "git",
                    "url": "https://anongit.kde.org/kdepim-runtime.git",
                    "branch": "master"
                }
            ],
            "modules": [
                {
                    "name": "libkolabxml",
                    "config-opts": [
                        "-DBUILD_TESTS=OFF",
                        "-DQT5_BUILD=ON",
                        "-DCMAKE_BUILD_TYPE=RelWithDebInfo"
                    ],
                    "buildsystem": "cmake-ninja",
                    "sources": [
                        {
                            "type": "git",
                            "url": "https://git.kolab.org/diffusion/LKX/libkolabxml.git",
                            "branch": "libkolabxml-1.1"
                        }
                    ],
                    "modules": [
                        {
                            "name": "xerces-c",
                            "config-opts": [
                                "--disable-static"
                            ],
                            "sources": [
                                {
                                    "type": "archive",
                                    "url": "http://archive.apache.org/dist/xerces/c/3/sources/xerces-c-3.1.4.tar.gz",
                                    "sha256": "c98eedac4cf8a73b09366ad349cb3ef30640e7a3089d360d40a3dde93f66ecf6"
                                }
                            ],
                            "cleanup": [
                                "/bin"
                            ]
                        },
                        {
                            "name": "xsd",
                            "make-install-args": [
                                "install_prefix=/app"
                            ],
                            "no-autogen": true,
                            "sources": [
                                {
                                    "type": "archive",
                                    "url": "http://www.codesynthesis.com/download/xsd/4.0/xsd-4.0.0+dep.tar.bz2",
                                    "sha256": "eca52a9c8f52cdbe2ae4e364e4a909503493a0d51ea388fc6c9734565a859817"
                                }
                            ],
                            "cleanup": [
                                "/share/doc/xsd",
                                "/share/doc/libxsd"
                            ]
                        },
                        {
                            "name": "kdelibs4support",
                            "config-opts": [
                                "-DBUILD_TESTING=OFF",
                                "-DCMAKE_BUILD_TYPE=RelWithDebInfo"
                            ],
                            "buildsystem": "cmake-ninja",
                            "sources": [
                                {
                                    "type": "git",
                                    "url": "https://anongit.kde.org/kdelibs4support.git",
                                    "branch": "v5.60.0"
                                }
                            ]
                        }
                    ]
                }
            ]
        },
        {
            "name": "ktnef",
            "config-opts": [
                "-DBUILD_TESTING=OFF",
                "-DCMAKE_BUILD_TYPE=RelWithDebInfo"
            ],
            "buildsystem": "cmake-ninja",
            "sources": [
                {
                    "type": "git",
                    "url": "https://anongit.kde.org/ktnef.git",
                    "branch": "master"
                }
            ]
        },
        {
            "name": "kmail",
            "config-opts": [
                "-DBUILD_TESTING=OFF",
                "-DCMAKE_BUILD_TYPE=RelWithDebInfo"
            ],
            "buildsystem": "cmake-ninja",
            "sources": [
                {
                    "type": "git",
                    "url": "https://anongit.kde.org/kmail.git",
                    "branch": "master"
                }
            ]
        },
        {
            "name": "akregator",
            "config-opts": [
                "-DBUILD_TESTING=OFF",
                "-DCMAKE_BUILD_TYPE=RelWithDebInfo"
            ],
            "buildsystem": "cmake-ninja",
            "sources": [
                {
                    "type": "git",
                    "url": "https://anongit.kde.org/akregator.git",
                    "branch": "master"
                }
            ]
        },
        {
            "name": "korganizer",
            "config-opts": [
                "-DBUILD_TESTING=OFF",
                "-DCMAKE_BUILD_TYPE=RelWithDebInfo"
            ],
            "buildsystem": "cmake-ninja",
            "sources": [
                {
                    "type": "git",
                    "url": "https://anongit.kde.org/korganizer.git",
                    "branch": "master"
                }
            ]
        },
        {
            "name": "kaddressbook",
            "config-opts": [
                "-DBUILD_TESTING=OFF",
                "-DCMAKE_BUILD_TYPE=RelWithDebInfo"
            ],
            "buildsystem": "cmake-ninja",
            "sources": [
                {
                    "type": "git",
                    "url": "https://anongit.kde.org/kaddressbook.git",
                    "branch": "master"
                }
            ]
        },
        {
            "name": "knotes",
            "config-opts": [
                "-DBUILD_TESTING=OFF",
                "-DCMAKE_BUILD_TYPE=RelWithDebInfo"
            ],
            "buildsystem": "cmake-ninja",
            "sources": [
                {
                    "type": "git",
                    "url": "https://anongit.kde.org/knotes.git",
                    "branch": "master"
                }
            ]
        },
        {
            "name": "kontact",
            "config-opts": [
                "-DBUILD_TESTING=OFF",
                "-DCMAKE_BUILD_TYPE=RelWithDebInfo"
            ],
            "buildsystem": "cmake-ninja",
            "sources": [
                {
                    "type": "git",
                    "url": "https://anongit.kde.org/kontact.git",
                    "branch": "master"
                },
                {
                    "type": "file",
                    "path": "run_kontact.sh"
                }
            ],
            "post-install": [
                "install run_kontact.sh /app/bin/run_kontact.sh"
            ]
        },
        {
            "name": "akonadi-import-wizard",
            "config-opts": [
                "-DBUILD_TESTING=OFF",
                "-DCMAKE_BUILD_TYPE=RelWithDebInfo"
            ],
            "buildsystem": "cmake-ninja",
            "sources": [
                {
                    "type": "git",
                    "url": "https://anongit.kde.org/akonadi-import-wizard.git",
                    "branch": "master"
                }
            ]
        },

        {
            "name": "kdepim-addons",
            "config-opts": [
                "-DBUILD_TESTING=OFF",
                "-DCMAKE_BUILD_TYPE=RelWithDebInfo"
            ],
            "buildsystem": "cmake-ninja",
            "sources": [
                {
                    "type": "git",
                    "url": "https://anongit.kde.org/kdepim-addons.git",
                    "branch": "master"
                }
            ],
            "modules": [
                {
                    "name": "kitinerary",
                    "config-opts": [
                        "-DBUILD_TESTING=OFF",
                        "-DCMAKE_BUILD_TYPE=RelWithDebInfo"
                    ],
                    "buildsystem": "cmake-ninja",
                    "sources": [
                        {
                            "type": "git",
                            "url": "https://anongit.kde.org/kitinerary.git",
                            "branch": "master"
                        }
                    ],
                    "modules": [
                        {
                            "name": "kpkpass",
                            "config-opts": [
                                "-DBUILD_TESTING=OFF",
                                "-DCMAKE_BUILD_TYPE=RelWithDebInfo"
                            ],
                            "buildsystem": "cmake-ninja",
                            "sources": [
                                {
                                    "type": "git",
                                    "url": "https://anongit.kde.org/kpkpass.git",
                                    "branch": "master"
                                }
                            ]
                        }
                    ]
                }
            ]
        },
        {
            "name": "grantlee-editor",
            "config-opts": [
                "-DBUILD_TESTING=OFF",
                "-DCMAKE_BUILD_TYPE=RelWithDebInfo"
            ],
            "buildsystem": "cmake-ninja",
            "sources": [
                {
                    "type": "git",
                    "url": "https://anongit.kde.org/grantlee-editor.git",
                    "branch": "master"
                }
            ]
        },
        {
            "name": "kmail-account-wizard",
            "config-opts": [
                "-DBUILD_TESTING=OFF",
                "-DCMAKE_BUILD_TYPE=RelWithDebInfo"
            ],
            "buildsystem": "cmake-ninja",
            "sources": [
                {
                    "type": "git",
                    "url": "https://anongit.kde.org/kmail-account-wizard.git",
                    "branch": "master"
                }
            ],
            "modules": [
                {
                    "name": "kross",
                    "config-opts": [
                        "-DBUILD_TESTING=OFF",
                        "-DCMAKE_BUILD_TYPE=RelWithDebInfo"
                    ],
                    "buildsystem": "cmake-ninja",
                    "sources": [
                        {
                            "type": "git",
                            "url": "https://anongit.kde.org/kross.git",
                            "branch": "v5.60.0"
                        }
                    ]
                }
            ]
        },
        {
            "name": "pim-data-exporter",
            "config-opts": [
                "-DBUILD_TESTING=OFF",
                "-DCMAKE_BUILD_TYPE=RelWithDebInfo"
            ],
            "buildsystem": "cmake-ninja",
            "sources": [
                {
                    "type": "git",
                    "url": "https://anongit.kde.org/pim-data-exporter.git",
                    "branch": "master"
                }
            ]
        },
        {
            "name": "pim-sieve-editor",
            "config-opts": [
                "-DBUILD_TESTING=OFF",
                "-DCMAKE_BUILD_TYPE=RelWithDebInfo"
            ],
            "buildsystem": "cmake-ninja",
            "sources": [
                {
                    "type": "git",
                    "url": "https://anongit.kde.org/pim-sieve-editor.git",
                    "branch": "master"
                }
            ]
        },
        {
            "name": "mbox-importer",
            "config-opts": [
                "-DBUILD_TESTING=OFF",
                "-DCMAKE_BUILD_TYPE=RelWithDebInfo"
            ],
            "buildsystem": "cmake-ninja",
            "sources": [
                {
                    "type": "git",
                    "url": "https://anongit.kde.org/mbox-importer.git",
                    "branch": "master"
                }
            ]
        }
    ]
}
