{
    "id": "org.kde.cervisia",
    "branch": "master",
    "runtime": "org.kde.Platform",
    "runtime-version": "5.12",
    "sdk": "org.kde.Sdk",
    "command": "cervisia",
    "tags": ["nightly"],
    "desktop-file-name-suffix": " (Nightly)",
    "finish-args": ["--share=ipc", "--socket=x11", "--socket=wayland", "--filesystem=host" ],

    "modules": [
        { "name": "ksu", "buildsystem": "cmake-ninja", "sources": [ { "type": "git", "url": "git://anongit.kde.org/kdesu.git", "branch": "v5.60.0" } ] },
        {
            "name": "cervisia",
            "buildsystem": "cmake-ninja",
            "sources": [
                { "type": "git", "url": "git://anongit.kde.org/cervisia.git" }
            ]
        }
    ]
}
