{
    "id": "org.kde.kitinerary-workbench",
    "branch": "master",
    "runtime": "org.kde.Platform",
    "runtime-version": "5.13",
    "sdk": "org.kde.Sdk",
    "command": "kitinerary-workbench",
    "tags": ["nightly"],
    "desktop-file-name-suffix": " (Nightly)",
    "finish-args": [
        "--share=ipc",
        "--socket=x11",
        "--socket=wayland",
        "--device=dri",
        "--filesystem=host:rw"
    ],
    "modules": [
        "poppler.json",
        {
            "name": "kitinerary",
            "config-opts": [ "-DENABLE_TESTING=OFF" ],
            "buildsystem": "cmake-ninja",
            "builddir": true,
            "sources": [ { "type": "git", "url": "git://anongit.kde.org/kitinerary.git" } ],
            "modules": [
                {
                    "name": "kpkpass",
                    "config-opts": [ "-DBUILD_TESTING=OFF", "-DCMAKE_BUILD_TYPE=RelWithDebInfo" ],
                    "buildsystem": "cmake-ninja",
                    "builddir": true,
                    "sources": [ { "type": "git", "url": "https://anongit.kde.org/kpkpass.git" } ],
                    "cleanup": [ "/include", "/lib/cmake", "/mkspecs", "/etc/xdg/*categories" ]
                },
                {
                    "name": "kmime",
                    "config-opts": [ "-DBUILD_TESTING=OFF", "-DCMAKE_BUILD_TYPE=RelWithDebInfo" ],
                    "buildsystem": "cmake-ninja",
                    "builddir": true,
                    "sources": [ { "type": "git", "url": "https://anongit.kde.org/kmime.git" } ],
                    "cleanup": [ "/include", "/lib/cmake", "/mkspecs", "/etc/xdg/*categories" ]
                },
                {
                    "name": "zxing",
                    "config-opts": [ "-DBUILD_SHARED_LIBS=ON" ],
                    "buildsystem": "cmake-ninja",
                    "builddir": true,
                    "sources": [ { "type": "git", "url": "https://github.com/nu-book/zxing-cpp" } ],
                    "cleanup": [ "/include", "/lib/cmake", "/mkspecs", "/etc/xdg/*categories" ]
                }
            ],
            "cleanup": [ "/include", "/lib/cmake", "/mkspecs", "/etc/xdg/*categories", "/lib/libexec" ]
        },
        {
            "name": "icon",
            "buildsystem": "simple",
            "build-commands": [
                "mkdir -p /app/share/icons/hicolor/32x32/apps/",
                "install -D /usr/share/icons/breeze/actions/22/map-globe.svg /app/share/icons/hicolor/32x32/apps/"
            ]
        },
        {
            "name": "kitinerary-workbench",
            "buildsystem": "cmake-ninja",
            "builddir": true,
            "sources": [ { "type": "git", "url": "https://anongit.kde.org/kitinerary-workbench.git" } ],
            "cleanup": [ "/etc/xdg/*categories" ]
        }
    ]
}
